{
  "items": [
    {
      "id": 1,
      "createdAt": "2022-09-29T12:10:16.405Z",
      "updatedAt": "2022-09-29T12:10:16.405Z",
      "iceEventCode": "ADVIS",
      "iceRicCode": "DLVDT",
      "ttproEventCode": "DD",
      "iceEventName": "Advise",
      "iceRicName": "DeLiVery DaTe",
      "iceEventNameDe": "Sendungsavise/-auftrag",
      "iceRicNameDe": "Wunschtag",
      "ttproStandardereignisBedeutung": "Datendienst",
      "ttproEventCodeMeaning": "Data Service",
      "dhlPaket": 1,
      "dhlPaketInternational": 1,
      "dhlEuropaket": 0,
      "wh1Status": "data-service"
    },
    {
      "id": 2,
      "createdAt": "2022-09-29T12:10:16.797Z",
      "updatedAt": "2022-09-29T12:10:16.797Z",
      "iceEventCode": "ADVIS",
      "iceRicCode": "DLVTM",
      "ttproEventCode": "DD",
      "iceEventName": "Advise",
      "iceRicName": "DeLiVery TiME",
      "iceEventNameDe": "Sendungsavise/-auftrag",
      "iceRicNameDe": "Wunschzeit / Zustellzeitfenster",
      "ttproStandardereignisBedeutung": "Datendienst",
      "ttproEventCodeMeaning": "Data Service",
      "dhlPaket": 1,
      "dhlPaketInternational": 0,
      "dhlEuropaket": 0,
      "wh1Status": "data-service"
    },
    {
      "id": 3,
      "createdAt": "2022-09-29T12:10:16.797Z",
      "updatedAt": "2022-09-29T12:10:16.797Z",
      "iceEventCode": "ADVIS",
      "iceRicCode": "ORDER",
      "ttproEventCode": "DD",
      "iceEventName": "Advise",
      "iceRicName": "Ordered",
      "iceEventNameDe": "Sendungsavise/-auftrag",
      "iceRicNameDe": "Beauftragt",
      "ttproStandardereignisBedeutung": "Datendienst",
      "ttproEventCodeMeaning": "Data Service",
      "dhlPaket": 1,
      "dhlPaketInternational": 1,
      "dhlEuropaket": 0,
      "wh1Status": "data-service"
    },
    {
      "id": 4,
      "createdAt": "2022-09-29T12:10:16.797Z",
      "updatedAt": "2022-09-29T12:10:16.797Z",
      "iceEventCode": "ADVIS",
      "iceRicCode": "PFLOC",
      "ttproEventCode": "DD",
      "iceEventName": "Advise",
      "iceRicName": "Preferred Location/Neighbor",
      "iceEventNameDe": "Sendungsavise/-auftrag",
      "iceRicNameDe": "Wunschort/Wunschnachbar",
      "ttproStandardereignisBedeutung": "Datendienst",
      "ttproEventCodeMeaning": "Data Service",
      "dhlPaket": 1,
      "dhlPaketInternational": 0,
      "dhlEuropaket": 0,
      "wh1Status": "data-service"
    },
    {
      "id": 5,
      "createdAt": "2022-09-29T12:10:16.797Z",
      "updatedAt": "2022-09-29T12:10:16.797Z",
      "iceEventCode": "ADVIS",
      "iceRicCode": "REJCT",
      "ttproEventCode": "DD",
      "iceEventName": "Advise",
      "iceRicName": "Rejected",
      "iceEventNameDe": "Sendungsavise/-auftrag",
      "iceRicNameDe": "Der Auftrag wurde abgelehnt",
      "ttproStandardereignisBedeutung": "Datendienst",
      "ttproEventCodeMeaning": "Data Service",
      "dhlPaket": 1,
      "dhlPaketInternational": 0,
      "dhlEuropaket": 0,
      "wh1Status": "data-service"
    },
    {
      "id": 6,
      "createdAt": "2022-09-29T12:10:16.797Z",
      "updatedAt": "2022-09-29T12:10:16.797Z",
      "iceEventCode": "ADVIS",
      "iceRicCode": "ROUCR",
      "ttproEventCode": "DD",
      "iceEventName": "Advise",
      "iceRicName": "reROUted on Customer Request",
      "iceEventNameDe": "Sendungsavise/-auftrag",
      "iceRicNameDe": "Weiterleitung auf Kundenwunsch",
      "ttproStandardereignisBedeutung": "Datendienst",
      "ttproEventCodeMeaning": "Data Service",
      "dhlPaket": 1,
      "dhlPaketInternational": 0,
      "dhlEuropaket": 0,
      "wh1Status": "data-service"
    },
    {
      "id": 7,
      "createdAt": "2022-09-29T12:10:16.797Z",
      "updatedAt": "2022-09-29T12:10:16.797Z",
      "iceEventCode": "ADVIS",
      "iceRicCode": "SECDA",
      "ttproEventCode": "DD",
      "iceEventName": "Advise",
      "iceRicName": "SECond Delivery Attempt",
      "iceEventNameDe": "Sendungsavise/-auftrag",
      "iceRicNameDe": "Zweiter Zustellversuch",
      "ttproStandardereignisBedeutung": "Datendienst",
      "ttproEventCodeMeaning": "Data Service",
      "dhlPaket": 0,
      "dhlPaketInternational": 1,
      "dhlEuropaket": 0,
      "wh1Status": "data-service"
    },
    {
      "id": 8,
      "createdAt": "2022-09-29T12:10:16.797Z",
      "updatedAt": "2022-09-29T12:10:16.797Z",
      "iceEventCode": "ADVIS",
      "iceRicCode": "STBSD",
      "ttproEventCode": "DD",
      "iceEventName": "Advise",
      "iceRicName": "Stopped by sender",
      "iceEventNameDe": "Sendungsavise/-auftrag",
      "iceRicNameDe": "Absenderverf체gung: Sendung anhalten",
      "ttproStandardereignisBedeutung": "Datendienst",
      "ttproEventCodeMeaning": "Data Service",
      "dhlPaket": 1,
      "dhlPaketInternational": 0,
      "dhlEuropaket": 0,
      "wh1Status": "data-service"
    },
    {
      "id": 9,
      "createdAt": "2022-09-29T12:10:16.797Z",
      "updatedAt": "2022-09-29T12:10:16.797Z",
      "iceEventCode": "ALERT",
      "iceRicCode": "DLVTM",
      "ttproEventCode": "DD",
      "iceEventName": "Alert",
      "iceRicName": "DeLiVery TiME",
      "iceEventNameDe": "Benachrichtigung",
      "iceRicNameDe": "Wunschzeit / Zustellzeitfenster",
      "ttproStandardereignisBedeutung": "Datendienst",
      "ttproEventCodeMeaning": "Data Service",
      "dhlPaket": 1,
      "dhlPaketInternational": 1,
      "dhlEuropaket": 0,
      "wh1Status": "data-service"
    },
    {
      "id": 10,
      "createdAt": "2022-09-29T12:10:16.797Z",
      "updatedAt": "2022-09-29T12:10:16.797Z",
      "iceEventCode": "CHECK",
      "iceRicCode": "SVCHG",
      "ttproEventCode": "BV",
      "iceEventName": "Checked",
      "iceRicName": "Product feature check - Service changed",
      "iceEventNameDe": "Produktmerkmal-Pr체fung",
      "iceRicNameDe": "Produktpr체fung - Service ge채ndert",
      "ttproStandardereignisBedeutung": "Besondere Vorkommnisse",
      "ttproEventCodeMeaning": "Exception",
      "dhlPaket": 0,
      "dhlPaketInternational": 0,
      "dhlEuropaket": 1,
      "wh1Status": "exception"
    }
  ],
  "meta": {
    "totalItems": 270,
    "itemCount": 10,
    "itemsPerPage": 10,
    "totalPages": 27,
    "currentPage": 1
  },
  "links": {
    "first": "/ice-event-ric-combinations-dhl/filter/?limit=10",
    "previous": "",
    "next": "/ice-event-ric-combinations-dhl/filter/?page=2&limit=10",
    "last": "/ice-event-ric-combinations-dhl/filter/?page=27&limit=10"
  }
}