{
  "items": [
    {
      "id": 1,
      "createdAt": "2022-11-15T10:21:08.165Z",
      "updatedAt": "2022-11-15T10:21:10.270Z",
      "orderId": 519,
      "implementationId": 3,
      "carrierReturnRequestId": null,
      "trackingCode": "00340434161094042557",
      "returnShipmentDestinationId": 2,
      "currentStatus": "received",
      "qrCode": null,
      "returnRequestHistories": []
    },
    {
      "id": 2,
      "createdAt": "2022-11-15T10:24:03.284Z",
      "updatedAt": "2022-11-15T10:24:05.002Z",
      "orderId": 520,
      "implementationId": 3,
      "carrierReturnRequestId": null,
      "trackingCode": "00340434161094038253",
      "returnShipmentDestinationId": 1,
      "currentStatus": "received",
      "qrCode": null,
      "returnRequestHistories": []
    },
    {
      "id": 3,
      "createdAt": "2022-11-15T10:24:03.284Z",
      "updatedAt": "2022-11-15T10:24:05.002Z",
      "orderId": 520,
      "implementationId": 3,
      "carrierReturnRequestId": null,
      "trackingCode": "00340434161094032954",
      "returnShipmentDestinationId": 2,
      "currentStatus": "received",
      "qrCode": null,
      "returnRequestHistories": []
    },
    {
      "id": 4,
      "createdAt": "2022-11-15T10:24:03.284Z",
      "updatedAt": "2022-11-15T10:24:05.002Z",
      "orderId": 520,
      "implementationId": 3,
      "carrierReturnRequestId": null,
      "trackingCode": "00340434161094027318",
      "returnShipmentDestinationId": 1,
      "currentStatus": "received",
      "qrCode": null,
      "returnRequestHistories": []
    },
    {
      "id": 5,
      "createdAt": "2022-11-15T10:24:03.284Z",
      "updatedAt": "2022-11-15T10:24:05.002Z",
      "orderId": 520,
      "implementationId": 3,
      "carrierReturnRequestId": null,
      "trackingCode": "00340434161094022115",
      "returnShipmentDestinationId": 2,
      "currentStatus": "received",
      "qrCode": null,
      "returnRequestHistories": []
    },
    {
      "id": 6,
      "createdAt": "2022-11-15T10:24:03.284Z",
      "updatedAt": "2022-11-15T10:24:05.002Z",
      "orderId": 520,
      "implementationId": 3,
      "carrierReturnRequestId": null,
      "trackingCode": "00340434161094015902",
      "returnShipmentDestinationId": 1,
      "currentStatus": "received",
      "qrCode": null,
      "returnRequestHistories": []
    },
    {
      "id": 8,
      "createdAt": "2022-11-09T08:41:28.735Z",
      "updatedAt": "2022-11-09T08:41:29.182Z",
      "orderId": 520,
      "implementationId": 3,
      "carrierReturnRequestId": null,
      "trackingCode": "999990685253",
      "returnShipmentDestinationId": 1,
      "currentStatus": null,
      "qrCode": null,
      "returnRequestHistories": []
    },
    {
      "id": 9,
      "createdAt": "2022-11-09T08:50:33.493Z",
      "updatedAt": "2022-11-09T08:50:34.012Z",
      "orderId": 520,
      "implementationId": 3,
      "carrierReturnRequestId": null,
      "trackingCode": "999990685369",
      "returnShipmentDestinationId": 1,
      "currentStatus": null,
      "qrCode": null,
      "returnRequestHistories": []
    },
    {
      "id": 10,
      "createdAt": "2022-11-09T11:35:53.906Z",
      "updatedAt": "2022-11-09T11:35:54.480Z",
      "orderId": 520,
      "implementationId": 3,
      "carrierReturnRequestId": null,
      "trackingCode": "999990687295",
      "returnShipmentDestinationId": 1,
      "currentStatus": null,
      "qrCode": null,
      "returnRequestHistories": []
    },
    {
      "id": 11,
      "createdAt": "2022-11-09T11:40:55.393Z",
      "updatedAt": "2022-11-09T11:40:55.886Z",
      "orderId": 518,
      "implementationId": 3,
      "carrierReturnRequestId": null,
      "trackingCode": "999990687332",
      "returnShipmentDestinationId": 1,
      "currentStatus": null,
      "qrCode": null,
      "returnRequestHistories": []
    }
  ],
  "meta": {
    "totalItems": 39,
    "itemCount": 10,
    "itemsPerPage": 10,
    "totalPages": 4,
    "currentPage": 1
  },
  "links": {
    "first": "/return-requests/filter/status-not-received?limit=10",
    "previous": "",
    "next": "/return-requests/filter/status-not-received?page=2&limit=10",
    "last": "/return-requests/filter/status-not-received?page=4&limit=10"
  }
}